{
  "Comment.nvim": { "branch": "master", "commit": "e30b7f2008e52442154b66f7c519bfd2f1e32acb" },
  "LazyVim": { "branch": "main", "commit": "12818a6cb499456f4903c5d8e68af43753ebc869" },
  "LuaSnip": { "branch": "master", "commit": "e808bee352d1a6fcf902ca1a71cee76e60e24071" },
  "SchemaStore.nvim": { "branch": "main", "commit": "e4540afab799b11895d02dbd2a53035ed15d759c" },
  "alpha-nvim": { "branch": "main", "commit": "b6f4129302db197a7249e67a90de3f2b676de13e" },
  "bufferline.nvim": { "branch": "main", "commit": "0b2fd861eee7595015b6561dade52fb060be10c4" },
  "catppuccin": { "branch": "main", "commit": "63685e1562ef53873c9764b483d7ac5c7a608922" },
  "clangd_extensions.nvim": { "branch": "main", "commit": "385a44f133f4145e3a3da1a2a557225dccc3e1f8" },
  "cmake-tools.nvim": { "branch": "master", "commit": "4be3c229fe932043fd83ad52fdf0ba9af7297789" },
  "cmp-buffer": { "branch": "main", "commit": "3022dbc9166796b644a841a02de8dd1cc1d311fa" },
  "cmp-emoji": { "branch": "main", "commit": "e8398e2adf512a03bb4e1728ca017ffeac670a9f" },
  "cmp-nvim-lsp": { "branch": "main", "commit": "39e2eda76828d88b773cc27a3f61d2ad782c922d" },
  "cmp-path": { "branch": "main", "commit": "91ff86cd9c29299a64f968ebb45846c485725f23" },
  "conform.nvim": { "branch": "master", "commit": "1a99fdc1d3aa9ccdf3021e67982a679a8c5c740c" },
  "dressing.nvim": { "branch": "master", "commit": "c5775a888adbc50652cb370073fcfec963eca93e" },
  "flash.nvim": { "branch": "main", "commit": "34c7be146a91fec3555c33fe89c7d643f6ef5cf1" },
  "friendly-snippets": { "branch": "main", "commit": "00ebcaa159e817150bd83bfe2d51fa3b3377d5c4" },
  "gitsigns.nvim": { "branch": "main", "commit": "1ef74b546732f185d0f806860fa5404df7614f28" },
  "grug-far.nvim": { "branch": "main", "commit": "62feb8e2a0fc564d8c712e813210accfcea5d69d" },
  "gruvbox.nvim": { "branch": "main", "commit": "7a1b23e4edf73a39642e77508ee6b9cbb8c60f9e" },
  "hlchunk.nvim": { "branch": "main", "commit": "6c25dbc174d6bdecee6cbeab1d7a783fd2c407ba" },
  "image.nvim": { "branch": "master", "commit": "c4e826027e0428e3a5d7a95700be7a3ce49c2587" },
  "indent-blankline.nvim": { "branch": "master", "commit": "18603eb949eba08300799f64027af11ef922283f" },
  "lazy.nvim": { "branch": "main", "commit": "077102c5bfc578693f12377846d427f49bc50076" },
  "lazydev.nvim": { "branch": "main", "commit": "491452cf1ca6f029e90ad0d0368848fac717c6d2" },
  "lualine.nvim": { "branch": "master", "commit": "b431d228b7bbcdaea818bdc3e25b8cdbe861f056" },
  "luvit-meta": { "branch": "main", "commit": "ce76f6f6cdc9201523a5875a4471dcfe0186eb60" },
  "markdown-preview.nvim": { "branch": "master", "commit": "a923f5fc5ba36a3b17e289dc35dc17f66d0548ee" },
  "markdown.nvim": { "branch": "main", "commit": "2424693c7a4c79641a7ea1e2a838dbc9238d6066" },
  "mason-lspconfig.nvim": { "branch": "main", "commit": "25c11854aa25558ee6c03432edfa0df0217324be" },
  "mason.nvim": { "branch": "main", "commit": "e2f7f9044ec30067bc11800a9e266664b88cda22" },
  "mini.ai": { "branch": "main", "commit": "40e380a589d07ec2c856940c6422aafe5d949a0d" },
  "mini.animate": { "branch": "main", "commit": "d33ddf0eefee6338bbd95805c4595c1b34e6bfe2" },
  "mini.files": { "branch": "main", "commit": "a3a9cce82115a69dba161ac45bda16f4e606f73b" },
  "mini.icons": { "branch": "main", "commit": "2d89252993fec829b24720097a687412d10f6c85" },
  "mini.pairs": { "branch": "main", "commit": "e543c760edc5e746e5b6cbd02c066c17ead3ef16" },
  "moonfly": { "branch": "master", "commit": "876a777a2537cafc9e951ec6b0082f4e056780f4" },
  "neo-tree.nvim": { "branch": "v3.x", "commit": "a77af2e764c5ed4038d27d1c463fa49cd4794e07" },
  "neovim-ayu": { "branch": "master", "commit": "2839c88cd297a069e93df1aab542c087e8f6e8c0" },
  "noctishc.nvim": { "branch": "main", "commit": "45dc48a703ca0a97e301097f0d1a08bf1121c9b3" },
  "noice.nvim": { "branch": "main", "commit": "448bb9c524a7601035449210838e374a30153172" },
  "nui.nvim": { "branch": "main", "commit": "b58e2bfda5cea347c9d58b7f11cf3012c7b3953f" },
  "nvim-cmp": { "branch": "main", "commit": "ae644feb7b67bf1ce4260c231d1d4300b19c6f30" },
  "nvim-jdtls": { "branch": "master", "commit": "99e4b2081de1d9162666cc7b563cbeb01c26b66b" },
  "nvim-lint": { "branch": "master", "commit": "99cab0b885aaa2f59736c047d23e9a7835d4f9a9" },
  "nvim-lspconfig": { "branch": "master", "commit": "eb36e0185ad4b92b0999fb698428f2966334d2c1" },
  "nvim-notify": { "branch": "master", "commit": "d333b6f167900f6d9d42a59005d82919830626bf" },
  "nvim-snippets": { "branch": "main", "commit": "56b4052f71220144689caaa2e5b66222ba5661eb" },
  "nvim-treesitter": { "branch": "master", "commit": "4d94c24d6cb9985347bdf0692c1fd81088c6c8b2" },
  "nvim-treesitter-textobjects": { "branch": "master", "commit": "bf8d2ad35d1d1a687eae6c065c3d524f7ab61b23" },
  "nvim-ts-autotag": { "branch": "main", "commit": "e239a560f338be31337e7abc3ee42515daf23f5e" },
  "nvim-web-devicons": { "branch": "master", "commit": "e612de3d3a41a6b7be47f51e956dddabcbf419d9" },
  "nvim-window-picker": { "branch": "main", "commit": "41cfaa428577c53552200a404ae9b3a0b5719706" },
  "onedark.nvim": { "branch": "master", "commit": "fae34f7c635797f4bf62fb00e7d0516efa8abe37" },
  "outline.nvim": { "branch": "main", "commit": "41e7b88a2b0baa90619af5ec8af462fcb442db65" },
  "persistence.nvim": { "branch": "main", "commit": "f6aad7dde7fcf54148ccfc5f622c6d5badd0cc3d" },
  "plenary.nvim": { "branch": "master", "commit": "f4faa5a3dc77a694ba58f42585985fed88540ac6" },
  "solarized-osaka.nvim": { "branch": "main", "commit": "126d394c0c979a99206214a2b6b8c86e456c9c0f" },
  "tairiki.nvim": { "branch": "master", "commit": "1e4e7b75501e12538d085694d64d3648b97f6b65" },
  "telescope-file-browser.nvim": { "branch": "master", "commit": "dd9de68c08b6d678198a99f5ea13e0384a1f04cf" },
  "telescope-fzf-native.nvim": { "branch": "main", "commit": "cf48d4dfce44e0b9a2e19a008d6ec6ea6f01a83b" },
  "telescope.nvim": { "branch": "master", "commit": "40d6d81b1d2e527bbe5d3fe5e6896de745bc1c84" },
  "todo-comments.nvim": { "branch": "main", "commit": "ae0a2afb47cf7395dc400e5dc4e05274bf4fb9e0" },
  "tokyonight.nvim": { "branch": "main", "commit": "817bb6ffff1b9ce72cdd45d9fcfa8c9cd1ad3839" },
  "trouble.nvim": { "branch": "main", "commit": "6efc446226679fda0547c0fd6a7892fd5f5b15d8" },
  "ts-comments.nvim": { "branch": "main", "commit": "98d7d4dec0af1312d38e288f800bbf6ff562b6ab" },
  "venv-selector.nvim": { "branch": "regexp", "commit": "e82594274bf7b54387f9a2abe65f74909ac66e97" },
  "which-key.nvim": { "branch": "main", "commit": "bfec3d6bc0a9b0b2cb11644642f78c2c3915eef0" }
}
